…
#>  4 marinelli  Mari… FALSE   MALE            19             221       4343      9
#>  5 camillo_r… Cami… FALSE   MALE             1               6         78      1
#>  6 claudia    Clau… FALSE   FEMALE          13              73       1581      7
#>  7 pirro      Pirro FALSE   MALE             4              25        263      5
#>  8 odoardo    Odoa… FALSE   MALE            12             108       2441      6
#>  9 angelo     Ange… FALSE   MALE             2              28        487      2
#> 10 emilia     Emil… FALSE   FEMALE           7              64       1702      6
#> 11 appiani    Appi… FALSE   MALE             5              48        852      4
#> 12 battista   Batt… FALSE   MALE             4              11        152      4
#> 13 orsina     Orsi… FALSE   FEMALE           6              64       2111      4
#> # ℹ 4 more variables: weightedDegree <int>, closeness <dbl>, betweenness <dbl>,
#> #   eigenvector <dbl>
#> 
#> $segments
#> # A tibble: 43 × 4
#>    type  number title                              speakers 
#>    <chr>  <int> <chr>                              <list>   
#>  1 scene      1 Erster Aufzug | Erster Auftritt    <chr [2]>
#>  2 scene      2 Erster Aufzug | Zweiter Auftritt   <chr [2]>
#>  3 scene      3 Erster Aufzug | Dritter Auftritt   <chr [1]>
#>  4 scene      4 Erster Aufzug | Vierter Auftritt   <chr [2]>
#>  5 scene      5 Erster Aufzug | Fünfter Auftritt   <chr [1]>
#>  6 scene      6 Erster Aufzug | Sechster Auftritt  <chr [2]>
#>  7 scene      7 Erster Aufzug | Siebenter Auftritt <chr [2]>
#>  8 scene      8 Erster Aufzug | Achter Auftritt    <chr [2]>
#>  9 scene      9 Zweiter Aufzug | Erster Auftritt   <chr [2]>
#> 10 scene     10 Zweiter Aufzug | Zweiter Auftritt  <chr [2]>
#> # ℹ 33 more rows
…
- as a data frame:

``` r
get_text_df(play = "lessing-emilia-galotti", corpus = "ger")
#> # A tibble: 1,174 × 10
#>    text         type  type_attributes who   scene scene_path subdiv_path line_id
#>    <chr>        <chr> <chr>           <chr> <chr> <chr>      <chr>         <int>
#>  1 Die Szene, … stage ""              <NA>  Erst… act 1      stage 1           1
#>  2 an einem Ar… stage ""              der_… Erst… act 1 | s… sp 1 | sta…       2
#>  3 Klagen, nic… p     ""              der_… Erst… act 1 | s… sp 1 | p 1        3
#>  4 Indem er no… stage ""              der_… Erst… act 1 | s… sp 1 | p 1        4
#>  5 Eine Emilia… p     ""              der_… Erst… act 1 | s… sp 1 | p 1        5
#>  6 Er lieset.   stage ""              der_… Erst… act 1 | s… sp 1 | p 1        6
#>  7 Viel gefode… p     ""              der_… Erst… act 1 | s… sp 1 | p 1        7
#>  8 Er untersch… stage ""              der_… Erst… act 1 | s… sp 1 | p 1        8
#>  9 Es ist wohl… p     ""              der_… Erst… act 1 | s… sp 1 | p 1        9
#> 10 Nein.        p     ""              der_… Erst… act 1 | s… sp 2 | p 1       10
#> # ℹ 1,164 more rows
#> # ℹ 2 more variables: subdiv_id <int>, scene_id <int>
```
…
If you want to use another version of DraCor API (e.g. staging or
locally saved on your computer), you can use function
`set_dracor_api_url()`:

``` r
set_dracor_api_url("https://staging.dracor.org/api")
#> Working DraCor repository was changed from https://dracor.org/apiDraCor API URL:  https://staging.dracor.org/api 
#>  name: DraCor API v0
#> version: 0.91.2
#> status: beta
#> existdb: 6.2.0
#> base: https://staging.dracor.org/api/v0
get_dracor("u")
#> # A tibble: 40 × 55
#>    corpus id      playName yearNormalized title subtitle firstAuthorName authors
#>  * <chr>  <chr>   <chr>             <int> <chr> <chr>    <chr>           <list> 
#>  1 u      u000001 lesya-u…           1911 Адво… <NA>     Українка, Леся  <df>   
#>  2 u      u00000… lesya-u…           1905 Три … <NA>     Українка, Леся  <df>   
#>  3 u      u00000… lesya-u…           1901 Одер… Драмати… Українка, Леся  <df>   
#>  4 u      u00000… lesya-u…           1909 У пу… <NA>     Українка, Леся  <df>   
#>  5 u      u00000… lesya-u…           1896 Блак… <NA>     Українка, Леся  <df>   
#>  6 u      u00000… lesya-u…           1906 В до… <NA>     Українка, Леся  <df>   
#>  7 u      u00000… lesya-u…           1898 Іфіг… (драмат… Українка, Леся  <df>   
#>  8 u      u00000… kropivn…           1863 Дай … Драма в… Кропивницький,… <df>   
#>  9 u      u00000… lesya-u…           1896 Прощ… <NA>     Українка, Леся  <df>   
#> 10 u      u00000… lesya-u…           1903 У по… Драмати… Українка, Леся  <df>   
#> # ℹ 30 more rows
#> # ℹ 47 more variables: source <chr>, sourceUrl <chr>, writtenYearStart <lgl>,
#> #   writtenYearFinish <int>, printYearStart <lgl>, printYearFinish <lgl>,
#> #   premiereYearStart <lgl>, premiereYearFinish <lgl>, wikidataId <lgl>,
#> #   networkSize <int>, networkdataCsvUrl <chr>, normalizedGenre <lgl>,
#> #   size <int>, density <dbl>, diameter <int>, averageClustering <dbl>,
#> #   averagePathLength <dbl>, averageDegree <dbl>, maxDegree <int>, …
```
…
